Demo of the OBIShmpr package
…
## 
Retrieved 1101 records of approximately 1101 (100%) `obis_recs` successfully converted to sf
##  `obis_recs` crs: 4326, +proj=longlat +datum=WGS84 +no_defs
##  `obis_recs` crs: 4326, +proj=longlat +datum=WGS84 +no_defs

data_spp1

## Simple feature collection with 1101 features and 24 fields
## geometry type:  POINT
## dimension:      XY
## bbox:           xmin: -9.833333 ymin: 44.645 xmax: 9.243193 ymax: 58.72215
## epsg (SRID):    4326
## proj4string:    +proj=longlat +datum=WGS84 +no_defs
## # A tibble: 1,101 x 25
##    month year  scientificName aphiaID maximumDepthInM id    eventDate
##    <chr> <chr> <chr>            <int>            <dbl> <chr> <chr>    
##  1 03    2010  Magallana gig  836033               NA 0007 2010-03-
##  2 05    1988  Magallana gig  836033               NA 0008 1988-05-
##  3 02    2007  Magallana gig  836033               NA 0032 2007-02-
##  4 10    1990  Magallana gig  836033               NA 004d 1990-10-
##  5 11    1984  Magallana gig  836033               NA 0062 1984-11-
##  6 01    1990  Magallana gig  836033               NA 006a 1990-01-
##  7 11    2004  Magallana gig  836033               NA 00cf 2004-11-
##  8 03    2009  Magallana gig  836033               NA 010f 2009-03-
##  9 10    2013  Magallana gig  836033               NA 0157 2013-10-
## 10 05    1988  Magallana gig  836033               NA 018f 1988-05-
## #  with 1,091 more rows, and 18 more variables: minimumDepthInMeters <dbl>,
## #   depth <dbl>, depth0 <dbl>, geometry <POINT []>, BO_ph <dbl>,
## #   BO_phosphate <dbl>, BO2_phosphatemean_bdmax <dbl>, BO_nitrate <dbl>,
## #   BO2_nitratemean_bdmax <dbl>, surface_nitrogen <dbl>, tn <dbl>,
## #   surface_carbon <dbl>, BO_sstmean <dbl>, BO_sstmin <dbl>, BO_sstmax <dbl>,
## #   MS_biogeo13_sst_mean_5m <dbl>, MS_biogeo14_sst_min_5m <dbl>,
## #   MS_biogeo15_sst_max_5m <dbl>
…
## 
Retrieved 96 records of approximately 96 (100%) `obis_recs` successfully converted to sf
##  `obis_recs` crs: 4326, +proj=longlat +datum=WGS84 +no_defs
##  `obis_recs` crs: 4326, +proj=longlat +datum=WGS84 +no_defs

data_spp2

## Simple feature collection with 96 features and 24 fields
## geometry type:  POINT
## dimension:      XY
## bbox:           xmin: -10.60808 ymin: 45.59042 xmax: 4.95983 ymax: 58.92086
## epsg (SRID):    4326
## proj4string:    +proj=longlat +datum=WGS84 +no_defs
## # A tibble: 96 x 25
##    month year  scientificName aphiaID maximumDepthInM id    eventDate
##    <chr> <chr> <chr>            <int>            <dbl> <chr> <chr>    
##  1 08    1992  Palinurus ele  107703               NA 039f 1992-08-
##  2 07    2003  Palinurus ele  107703               NA 0a5a 2003-07-
##  3 05    2010  Palinurus ele  107703               NA 0a88 2010-05-
##  4 07    1977  Palinurus ele  107703               NA 0b6f 1977-07-
##  5 06    1981  Palinurus ele  107703               NA 0e4d 1981-06-
##  6 05    2010  Palinurus ele  107703               NA 0f0d 2010-05-
##  7 08    2009  Palinurus ele  107703               NA 1041 2009-08-
##  8 07    2009  Palinurus ele  107703               NA 109e 2009-07-
##  9 08    1988  Palinurus ele  107703               NA 14f4 1988-08-
## 10 07    2011  Palinurus ele  107703               NA 17f1 2011-07-
## #  with 86 more rows, and 18 more variables: minimumDepthInMeters <int>,
## #   depth <dbl>, depth0 <dbl>, geometry <POINT []>, BO_ph <dbl>,
## #   BO_phosphate <dbl>, BO2_phosphatemean_bdmax <dbl>, BO_nitrate <dbl>,
## #   BO2_nitratemean_bdmax <dbl>, surface_nitrogen <dbl>, tn <dbl>,
## #   surface_carbon <dbl>, BO_sstmean <dbl>, BO_sstmin <dbl>, BO_sstmax <dbl>,
## #   MS_biogeo13_sst_mean_5m <dbl>, MS_biogeo14_sst_min_5m <dbl>,
## #   MS_biogeo15_sst_max_5m <dbl>
…
